{
  "posts": [
    {
      "id": 1,
      "title": "producto 3",
      "Nom": "producte 3",
      "descripcio": "typicode",
      "imatge": "https://shorturl.at/bdwJ2",
      "tipus": "tipus 1",
      "preu": "$120 ",
      "description": "descripcions del producto 3"
    },
    {
      "id": 2,
      "title": "producto 2",
      "Nom": "producte 2",
      "descripcio": "typicode",
      "imatge": "https://images.pexels.com/photos/1005638/pexels-photo-1005638.jpeg?cs=srgb&dl=pexels-oleg-magni-1005638.jpg&fm=jpg",
      "preu": "$220 ",
      "tipus": "tipus 2",
      "published": true,
      "description": "aixo es una prova"
    },
    {
      "id": 3,
      "title": "producto 3",
      "Nom": "producte 3",
      "descripcio": "typicode",
      "imatge": "https://images.pexels.com/photos/1005638/pexels-photo-1005638.jpeg?cs=srgb&dl=pexels-oleg-magni-1005638.jpg&fm=jpg",
      "preu": "$250 ",
      "tipus": "tipus 1",
      "description": "descripcions del producto 3"
    },
    {
      "id": 5,
      "title": "producto 5",
      "author": "typicode",
      "preu": "$275 ",
      "imatge": "https://images.pexels.com/photos/1005638/pexels-photo-1005638.jpeg?cs=srgb&dl=pexels-oleg-magni-1005638.jpg&fm=jpg"
    },
    {
      "id": 7,
      "title": "producte 7",
      "author": "producte 7",
      "preu": "$50 ",
      "imatge": "https://images.pexels.com/photos/1005638/pexels-photo-1005638.jpeg?cs=srgb&dl=pexels-oleg-magni-1005638.jpg&fm=jpg",
      "published": true
    },
    {
      "title": "producto 8",
      "description": "descripcion del producto",
      "preu": "$350 ",
      "imatge": "https://images.pexels.com/photos/1005638/pexels-photo-1005638.jpeg?cs=srgb&dl=pexels-oleg-magni-1005638.jpg&fm=jpg",
      "id": 8
    },
    {
      "title": "producto 9",
      "description": "descripcion del producto 9",
      "preu": "$450 ",
      "imatge": "https://images.pexels.com/photos/1005638/pexels-photo-1005638.jpeg?cs=srgb&dl=pexels-oleg-magni-1005638.jpg&fm=jpg",
      "id": 9
    },
    {
      "title": "producte 10",
      "description": "descripcion del producto 10",
      "preu": "$50 ",
      "imatge": "https://images.pexels.com/photos/1005638/pexels-photo-1005638.jpeg?cs=srgb&dl=pexels-oleg-magni-1005638.jpg&fm=jpg",
      "id": 10
    },
    {
      "id": 11,
      "title": "producto 11",
      "preu": "$25 ",
      "imatge": "https://images.pexels.com/photos/1005638/pexels-photo-1005638.jpeg?cs=srgb&dl=pexels-oleg-magni-1005638.jpg&fm=jpg",
      "description": "descripcio del producte 11",
      "published": true
    },
    {
      "title": "producto de pruebas",
      "preu": "$50 ",
      "imatge": "https://images.pexels.com/photos/1005638/pexels-photo-1005638.jpeg?cs=srgb&dl=pexels-oleg-magni-1005638.jpg&fm=jpg",
      "description": "descripcion pruebas",
      "id": 12
    },
    {
      "id": 20,
      "title": "producto pulseras",
      "preu": "$250 ",
      "imatge": "https://images.pexels.com/photos/1005638/pexels-photo-1005638.jpeg?cs=srgb&dl=pexels-oleg-magni-1005638.jpg&fm=jpg",
      "description": "descripcio del producte piser",
      "published": true
    },
    {
      "id": 21,
      "title": "producto pulseras",
      "preu": "$250 ",
      "imatge": "https://images.pexels.com/photos/1005638/pexels-photo-1005638.jpeg?cs=srgb&dl=pexels-oleg-magni-1005638.jpg&fm=jpg",
      "description": "descripcio del producte piser",
      "published": true
    }
  ],
  "cart": [
    {
      "id": 1,
      "name": "producto 3",
      "price": "$120 "
    },
    {
      "id": 21,
      "name": "producto pulseras",
      "price": "$250 "
    },
    {
      "id": 10,
      "name": "producte 10",
      "price": "$50 "
    }
  ],
  "profile": {
    "name": "typicode"
  }
}